HSB_PRO/Mini_ctrl_brd_zynq/.Xil/Vivado-41636-FXT333/hw_ila_data_1/zip_work/waveform.vcd
$date
        2025-Apr-30 14:05:37
$end
$version
        Vivado v2018.3 (64-bit)
$end
$timescale
        1ps
$end
$scope module dut $end
$var reg 32 " u_ila_0_doutb [31:0] $end
$var reg 11 B system_i/blk_mem_gen_0/U0/addrb [12:2] $end
$var reg 1 M system_i/blk_mem_gen_0/U0/enb $end
$var reg 1 N _TRIGGER $end
$var reg 1 O _WINDOW $end
$var reg 1 P _GAP $end
$upscope $end
$enddefinitions $end
#0
$dumpvars
b110011 "
b0 B
0M
0N
1O
0P
$end
#512
1M
1N
#513
b110001 "
b1 B
#514
b110010 "
b10 B
#515
b110011 "
b11 B
#516
b110100 "
b100 B
#517
b110101 "
b101 B
#518
b110110 "
b110 B
#519
b110111 "
b111 B
#520
b111000 "
b1000 B
#521
b111001 "
0M
#522
b0 B
